xof 0303txt 0032

Frame Root {
  FrameTransformMatrix {
     1.000000, 0.000000, 0.000000, 0.000000,
     0.000000, 0.000000, 1.000000, 0.000000,
     0.000000, 1.000000,-0.000000, 0.000000,
     0.000000, 0.000000, 0.000000, 1.000000;;
  }
  Frame Cone {
    FrameTransformMatrix {
       1.000000, 0.000000, 0.000000, 0.000000,
       0.000000, 1.000000, 0.000000, 0.000000,
       0.000000, 0.000000, 1.000000, 0.000000,
       0.000000, 0.000000, 0.000000, 1.000000;;
    }
    Mesh { //Cone_001 Mesh
      128;
      -0.195089; 0.980786;-1.000000;,
       0.000000; 0.000000; 1.000000;,
      -0.382682; 0.923880;-1.000000;,
       0.195090; 0.980785;-1.000000;,
       0.000000; 0.000000; 1.000000;,
       0.000000; 1.000000;-1.000000;,
       0.000000; 1.000000;-1.000000;,
       0.000000; 0.000000; 1.000000;,
      -0.195089; 0.980786;-1.000000;,
       0.382683; 0.923880;-1.000000;,
       0.000000; 0.000000; 1.000000;,
       0.195090; 0.980785;-1.000000;,
      -0.382682; 0.923880;-1.000000;,
       0.000000; 0.000000; 1.000000;,
      -0.555569; 0.831470;-1.000000;,
      -0.555569; 0.831470;-1.000000;,
       0.000000; 0.000000; 1.000000;,
      -0.707106; 0.707108;-1.000000;,
      -0.707106; 0.707108;-1.000000;,
       0.000000; 0.000000; 1.000000;,
      -0.831469; 0.555571;-1.000000;,
      -0.831469; 0.555571;-1.000000;,
       0.000000; 0.000000; 1.000000;,
      -0.923879; 0.382684;-1.000000;,
      -0.923879; 0.382684;-1.000000;,
       0.000000; 0.000000; 1.000000;,
      -0.980785; 0.195091;-1.000000;,
      -0.980785; 0.195091;-1.000000;,
       0.000000; 0.000000; 1.000000;,
      -1.000000; 0.000001;-1.000000;,
      -1.000000; 0.000001;-1.000000;,
       0.000000; 0.000000; 1.000000;,
      -0.980785;-0.195089;-1.000000;,
      -0.980785;-0.195089;-1.000000;,
       0.000000; 0.000000; 1.000000;,
      -0.923880;-0.382683;-1.000000;,
      -0.923880;-0.382683;-1.000000;,
       0.000000; 0.000000; 1.000000;,
      -0.831470;-0.555570;-1.000000;,
      -0.831470;-0.555570;-1.000000;,
       0.000000; 0.000000; 1.000000;,
      -0.707107;-0.707106;-1.000000;,
      -0.707107;-0.707106;-1.000000;,
       0.000000; 0.000000; 1.000000;,
      -0.555571;-0.831469;-1.000000;,
      -0.555571;-0.831469;-1.000000;,
       0.000000; 0.000000; 1.000000;,
      -0.382684;-0.923879;-1.000000;,
      -0.382684;-0.923879;-1.000000;,
       0.000000; 0.000000; 1.000000;,
      -0.195091;-0.980785;-1.000000;,
      -0.195091;-0.980785;-1.000000;,
       0.000000; 0.000000; 1.000000;,
      -0.000000;-1.000000;-1.000000;,
      -0.000000;-1.000000;-1.000000;,
       0.000000; 0.000000; 1.000000;,
       0.195090;-0.980785;-1.000000;,
       0.195090;-0.980785;-1.000000;,
       0.000000; 0.000000; 1.000000;,
       0.382683;-0.923880;-1.000000;,
       0.382683;-0.923880;-1.000000;,
       0.000000; 0.000000; 1.000000;,
       0.555570;-0.831470;-1.000000;,
       0.555570;-0.831470;-1.000000;,
       0.000000; 0.000000; 1.000000;,
       0.707107;-0.707107;-1.000000;,
       0.707107;-0.707107;-1.000000;,
       0.000000; 0.000000; 1.000000;,
       0.831470;-0.555570;-1.000000;,
       0.831470;-0.555570;-1.000000;,
       0.000000; 0.000000; 1.000000;,
       0.923880;-0.382683;-1.000000;,
       0.923880;-0.382683;-1.000000;,
       0.000000; 0.000000; 1.000000;,
       0.980785;-0.195090;-1.000000;,
       0.980785;-0.195090;-1.000000;,
       0.000000; 0.000000; 1.000000;,
       1.000000; 0.000000;-1.000000;,
       1.000000; 0.000000;-1.000000;,
       0.000000; 0.000000; 1.000000;,
       0.980785; 0.195090;-1.000000;,
       0.980785; 0.195090;-1.000000;,
       0.000000; 0.000000; 1.000000;,
       0.923880; 0.382683;-1.000000;,
       0.923880; 0.382683;-1.000000;,
       0.000000; 0.000000; 1.000000;,
       0.831470; 0.555570;-1.000000;,
       0.831470; 0.555570;-1.000000;,
       0.000000; 0.000000; 1.000000;,
       0.707107; 0.707107;-1.000000;,
       0.707107; 0.707107;-1.000000;,
       0.000000; 0.000000; 1.000000;,
       0.555570; 0.831470;-1.000000;,
       0.555570; 0.831470;-1.000000;,
       0.000000; 0.000000; 1.000000;,
       0.382683; 0.923880;-1.000000;,
      -0.195089; 0.980786;-1.000000;,
      -0.382682; 0.923880;-1.000000;,
      -0.555569; 0.831470;-1.000000;,
      -0.707106; 0.707108;-1.000000;,
      -0.831469; 0.555571;-1.000000;,
      -0.923879; 0.382684;-1.000000;,
      -0.980785; 0.195091;-1.000000;,
      -1.000000; 0.000001;-1.000000;,
      -0.980785;-0.195089;-1.000000;,
      -0.923880;-0.382683;-1.000000;,
      -0.831470;-0.555570;-1.000000;,
      -0.707107;-0.707106;-1.000000;,
      -0.555571;-0.831469;-1.000000;,
      -0.382684;-0.923879;-1.000000;,
      -0.195091;-0.980785;-1.000000;,
      -0.000000;-1.000000;-1.000000;,
       0.195090;-0.980785;-1.000000;,
       0.382683;-0.923880;-1.000000;,
       0.555570;-0.831470;-1.000000;,
       0.707107;-0.707107;-1.000000;,
       0.831470;-0.555570;-1.000000;,
       0.923880;-0.382683;-1.000000;,
       0.980785;-0.195090;-1.000000;,
       1.000000; 0.000000;-1.000000;,
       0.980785; 0.195090;-1.000000;,
       0.923880; 0.382683;-1.000000;,
       0.831470; 0.555570;-1.000000;,
       0.707107; 0.707107;-1.000000;,
       0.555570; 0.831470;-1.000000;,
       0.382683; 0.923880;-1.000000;,
       0.195090; 0.980785;-1.000000;,
       0.000000; 1.000000;-1.000000;;
      33;
      3;0;1;2;,
      3;3;4;5;,
      3;6;7;8;,
      3;9;10;11;,
      3;12;13;14;,
      3;15;16;17;,
      3;18;19;20;,
      3;21;22;23;,
      3;24;25;26;,
      3;27;28;29;,
      3;30;31;32;,
      3;33;34;35;,
      3;36;37;38;,
      3;39;40;41;,
      3;42;43;44;,
      3;45;46;47;,
      3;48;49;50;,
      3;51;52;53;,
      3;54;55;56;,
      3;57;58;59;,
      3;60;61;62;,
      3;63;64;65;,
      3;66;67;68;,
      3;69;70;71;,
      3;72;73;74;,
      3;75;76;77;,
      3;78;79;80;,
      3;81;82;83;,
      3;84;85;86;,
      3;87;88;89;,
      3;90;91;92;,
      3;93;94;95;,
      32;96;97;98;99;100;101;102;103;104;105;106;107;108;109;110;111;112;113;114;115;116;117;118;119;120;121;122;123;124;125;126;127;;
      MeshNormals { //Cone_001 Normals
        128;
        -0.259887; 0.856737; 0.445488;,
        -0.259887; 0.856737; 0.445488;,
        -0.259887; 0.856737; 0.445488;,
         0.087754; 0.890977; 0.445488;,
         0.087754; 0.890977; 0.445488;,
         0.087754; 0.890977; 0.445488;,
        -0.087753; 0.890977; 0.445488;,
        -0.087753; 0.890977; 0.445488;,
        -0.087753; 0.890977; 0.445488;,
         0.259888; 0.856737; 0.445488;,
         0.259888; 0.856737; 0.445488;,
         0.259888; 0.856737; 0.445488;,
        -0.422035; 0.789574; 0.445488;,
        -0.422035; 0.789574; 0.445488;,
        -0.422035; 0.789574; 0.445488;,
        -0.567964; 0.692067; 0.445488;,
        -0.567964; 0.692067; 0.445488;,
        -0.567964; 0.692067; 0.445488;,
        -0.692066; 0.567965; 0.445488;,
        -0.692066; 0.567965; 0.445488;,
        -0.692066; 0.567965; 0.445488;,
        -0.789573; 0.422037; 0.445488;,
        -0.789573; 0.422037; 0.445488;,
        -0.789573; 0.422037; 0.445488;,
        -0.856737; 0.259889; 0.445488;,
        -0.856737; 0.259889; 0.445488;,
        -0.856737; 0.259889; 0.445488;,
        -0.890977; 0.087754; 0.445488;,
        -0.890977; 0.087754; 0.445488;,
        -0.890977; 0.087754; 0.445488;,
        -0.890977;-0.087753; 0.445488;,
        -0.890977;-0.087753; 0.445488;,
        -0.890977;-0.087753; 0.445488;,
        -0.856737;-0.259887; 0.445488;,
        -0.856737;-0.259887; 0.445488;,
        -0.856737;-0.259887; 0.445488;,
        -0.789574;-0.422035; 0.445488;,
        -0.789574;-0.422035; 0.445488;,
        -0.789574;-0.422035; 0.445488;,
        -0.692067;-0.567964; 0.445488;,
        -0.692067;-0.567964; 0.445488;,
        -0.692067;-0.567964; 0.445488;,
        -0.567965;-0.692066; 0.445488;,
        -0.567965;-0.692066; 0.445488;,
        -0.567965;-0.692066; 0.445488;,
        -0.422036;-0.789573; 0.445488;,
        -0.422036;-0.789573; 0.445488;,
        -0.422036;-0.789573; 0.445488;,
        -0.259889;-0.856737; 0.445488;,
        -0.259889;-0.856737; 0.445488;,
        -0.259889;-0.856737; 0.445488;,
        -0.087754;-0.890977; 0.445488;,
        -0.087754;-0.890977; 0.445488;,
        -0.087754;-0.890977; 0.445488;,
         0.087753;-0.890977; 0.445488;,
         0.087753;-0.890977; 0.445488;,
         0.087753;-0.890977; 0.445488;,
         0.259888;-0.856737; 0.445488;,
         0.259888;-0.856737; 0.445488;,
         0.259888;-0.856737; 0.445488;,
         0.422036;-0.789573; 0.445488;,
         0.422036;-0.789573; 0.445488;,
         0.422036;-0.789573; 0.445488;,
         0.567965;-0.692067; 0.445488;,
         0.567965;-0.692067; 0.445488;,
         0.567965;-0.692067; 0.445488;,
         0.692067;-0.567965; 0.445488;,
         0.692067;-0.567965; 0.445488;,
         0.692067;-0.567965; 0.445488;,
         0.789573;-0.422035; 0.445488;,
         0.789573;-0.422035; 0.445488;,
         0.789573;-0.422035; 0.445488;,
         0.856737;-0.259888; 0.445488;,
         0.856737;-0.259888; 0.445488;,
         0.856737;-0.259888; 0.445488;,
         0.890977;-0.087753; 0.445488;,
         0.890977;-0.087753; 0.445488;,
         0.890977;-0.087753; 0.445488;,
         0.890977; 0.087754; 0.445488;,
         0.890977; 0.087754; 0.445488;,
         0.890977; 0.087754; 0.445488;,
         0.856737; 0.259888; 0.445488;,
         0.856737; 0.259888; 0.445488;,
         0.856737; 0.259888; 0.445488;,
         0.789573; 0.422036; 0.445488;,
         0.789573; 0.422036; 0.445488;,
         0.789573; 0.422036; 0.445488;,
         0.692067; 0.567965; 0.445488;,
         0.692067; 0.567965; 0.445488;,
         0.692067; 0.567965; 0.445488;,
         0.567965; 0.692067; 0.445488;,
         0.567965; 0.692067; 0.445488;,
         0.567965; 0.692067; 0.445488;,
         0.422036; 0.789573; 0.445488;,
         0.422036; 0.789573; 0.445488;,
         0.422036; 0.789573; 0.445488;,
         0.000000; 0.000000;-1.000000;,
         0.000000; 0.000000;-1.000000;,
         0.000000; 0.000000;-1.000000;,
         0.000000; 0.000000;-1.000000;,
         0.000000; 0.000000;-1.000000;,
         0.000000; 0.000000;-1.000000;,
         0.000000; 0.000000;-1.000000;,
         0.000000; 0.000000;-1.000000;,
         0.000000; 0.000000;-1.000000;,
         0.000000; 0.000000;-1.000000;,
         0.000000; 0.000000;-1.000000;,
         0.000000; 0.000000;-1.000000;,
         0.000000; 0.000000;-1.000000;,
         0.000000; 0.000000;-1.000000;,
         0.000000; 0.000000;-1.000000;,
         0.000000; 0.000000;-1.000000;,
         0.000000; 0.000000;-1.000000;,
         0.000000; 0.000000;-1.000000;,
         0.000000; 0.000000;-1.000000;,
         0.000000; 0.000000;-1.000000;,
         0.000000; 0.000000;-1.000000;,
         0.000000; 0.000000;-1.000000;,
         0.000000; 0.000000;-1.000000;,
         0.000000; 0.000000;-1.000000;,
         0.000000; 0.000000;-1.000000;,
         0.000000; 0.000000;-1.000000;,
         0.000000; 0.000000;-1.000000;,
         0.000000; 0.000000;-1.000000;,
         0.000000; 0.000000;-1.000000;,
         0.000000; 0.000000;-1.000000;,
         0.000000; 0.000000;-1.000000;,
         0.000000; 0.000000;-1.000000;;
        33;
        3;0;1;2;,
        3;3;4;5;,
        3;6;7;8;,
        3;9;10;11;,
        3;12;13;14;,
        3;15;16;17;,
        3;18;19;20;,
        3;21;22;23;,
        3;24;25;26;,
        3;27;28;29;,
        3;30;31;32;,
        3;33;34;35;,
        3;36;37;38;,
        3;39;40;41;,
        3;42;43;44;,
        3;45;46;47;,
        3;48;49;50;,
        3;51;52;53;,
        3;54;55;56;,
        3;57;58;59;,
        3;60;61;62;,
        3;63;64;65;,
        3;66;67;68;,
        3;69;70;71;,
        3;72;73;74;,
        3;75;76;77;,
        3;78;79;80;,
        3;81;82;83;,
        3;84;85;86;,
        3;87;88;89;,
        3;90;91;92;,
        3;93;94;95;,
        32;96;97;98;99;100;101;102;103;104;105;106;107;108;109;110;111;112;113;114;115;116;117;118;119;120;121;122;123;124;125;126;127;;
      } //End of Cone_001 Normals
      MeshMaterialList { //Cone_001 Material List
        1;
        33;
        0,
        0,
        0,
        0,
        0,
        0,
        0,
        0,
        0,
        0,
        0,
        0,
        0,
        0,
        0,
        0,
        0,
        0,
        0,
        0,
        0,
        0,
        0,
        0,
        0,
        0,
        0,
        0,
        0,
        0,
        0,
        0,
        0;;
        Material Bullet {
           0.640000; 0.451462; 0.000000; 1.000000;;
           96.078431;
           0.500000; 0.500000; 0.500000;;
           0.000000; 0.000000; 0.000000;;
          TextureFilename {"bulletTexture.png";}
        }
      } //End of Cone_001 Material List
    } //End of Cone_001 Mesh
  } //End of Cone
} //End of Root Frame
AnimationSet {
  Animation {
    {Cone}
    AnimationKey { //Position
      2;
      250;
      0;3;     0.000000, 0.000000, 0.000000;;,
      1;3;     0.000000, 0.000000, 0.000000;;,
      2;3;     0.000000, 0.000000, 0.000000;;,
      3;3;     0.000000, 0.000000, 0.000000;;,
      4;3;     0.000000, 0.000000, 0.000000;;,
      5;3;     0.000000, 0.000000, 0.000000;;,
      6;3;     0.000000, 0.000000, 0.000000;;,
      7;3;     0.000000, 0.000000, 0.000000;;,
      8;3;     0.000000, 0.000000, 0.000000;;,
      9;3;     0.000000, 0.000000, 0.000000;;,
      10;3;    0.000000, 0.000000, 0.000000;;,
      11;3;    0.000000, 0.000000, 0.000000;;,
      12;3;    0.000000, 0.000000, 0.000000;;,
      13;3;    0.000000, 0.000000, 0.000000;;,
      14;3;    0.000000, 0.000000, 0.000000;;,
      15;3;    0.000000, 0.000000, 0.000000;;,
      16;3;    0.000000, 0.000000, 0.000000;;,
      17;3;    0.000000, 0.000000, 0.000000;;,
      18;3;    0.000000, 0.000000, 0.000000;;,
      19;3;    0.000000, 0.000000, 0.000000;;,
      20;3;    0.000000, 0.000000, 0.000000;;,
      21;3;    0.000000, 0.000000, 0.000000;;,
      22;3;    0.000000, 0.000000, 0.000000;;,
      23;3;    0.000000, 0.000000, 0.000000;;,
      24;3;    0.000000, 0.000000, 0.000000;;,
      25;3;    0.000000, 0.000000, 0.000000;;,
      26;3;    0.000000, 0.000000, 0.000000;;,
      27;3;    0.000000, 0.000000, 0.000000;;,
      28;3;    0.000000, 0.000000, 0.000000;;,
      29;3;    0.000000, 0.000000, 0.000000;;,
      30;3;    0.000000, 0.000000, 0.000000;;,
      31;3;    0.000000, 0.000000, 0.000000;;,
      32;3;    0.000000, 0.000000, 0.000000;;,
      33;3;    0.000000, 0.000000, 0.000000;;,
      34;3;    0.000000, 0.000000, 0.000000;;,
      35;3;    0.000000, 0.000000, 0.000000;;,
      36;3;    0.000000, 0.000000, 0.000000;;,
      37;3;    0.000000, 0.000000, 0.000000;;,
      38;3;    0.000000, 0.000000, 0.000000;;,
      39;3;    0.000000, 0.000000, 0.000000;;,
      40;3;    0.000000, 0.000000, 0.000000;;,
      41;3;    0.000000, 0.000000, 0.000000;;,
      42;3;    0.000000, 0.000000, 0.000000;;,
      43;3;    0.000000, 0.000000, 0.000000;;,
      44;3;    0.000000, 0.000000, 0.000000;;,
      45;3;    0.000000, 0.000000, 0.000000;;,
      46;3;    0.000000, 0.000000, 0.000000;;,
      47;3;    0.000000, 0.000000, 0.000000;;,
      48;3;    0.000000, 0.000000, 0.000000;;,
      49;3;    0.000000, 0.000000, 0.000000;;,
      50;3;    0.000000, 0.000000, 0.000000;;,
      51;3;    0.000000, 0.000000, 0.000000;;,
      52;3;    0.000000, 0.000000, 0.000000;;,
      53;3;    0.000000, 0.000000, 0.000000;;,
      54;3;    0.000000, 0.000000, 0.000000;;,
      55;3;    0.000000, 0.000000, 0.000000;;,
      56;3;    0.000000, 0.000000, 0.000000;;,
      57;3;    0.000000, 0.000000, 0.000000;;,
      58;3;    0.000000, 0.000000, 0.000000;;,
      59;3;    0.000000, 0.000000, 0.000000;;,
      60;3;    0.000000, 0.000000, 0.000000;;,
      61;3;    0.000000, 0.000000, 0.000000;;,
      62;3;    0.000000, 0.000000, 0.000000;;,
      63;3;    0.000000, 0.000000, 0.000000;;,
      64;3;    0.000000, 0.000000, 0.000000;;,
      65;3;    0.000000, 0.000000, 0.000000;;,
      66;3;    0.000000, 0.000000, 0.000000;;,
      67;3;    0.000000, 0.000000, 0.000000;;,
      68;3;    0.000000, 0.000000, 0.000000;;,
      69;3;    0.000000, 0.000000, 0.000000;;,
      70;3;    0.000000, 0.000000, 0.000000;;,
      71;3;    0.000000, 0.000000, 0.000000;;,
      72;3;    0.000000, 0.000000, 0.000000;;,
      73;3;    0.000000, 0.000000, 0.000000;;,
      74;3;    0.000000, 0.000000, 0.000000;;,
      75;3;    0.000000, 0.000000, 0.000000;;,
      76;3;    0.000000, 0.000000, 0.000000;;,
      77;3;    0.000000, 0.000000, 0.000000;;,
      78;3;    0.000000, 0.000000, 0.000000;;,
      79;3;    0.000000, 0.000000, 0.000000;;,
      80;3;    0.000000, 0.000000, 0.000000;;,
      81;3;    0.000000, 0.000000, 0.000000;;,
      82;3;    0.000000, 0.000000, 0.000000;;,
      83;3;    0.000000, 0.000000, 0.000000;;,
      84;3;    0.000000, 0.000000, 0.000000;;,
      85;3;    0.000000, 0.000000, 0.000000;;,
      86;3;    0.000000, 0.000000, 0.000000;;,
      87;3;    0.000000, 0.000000, 0.000000;;,
      88;3;    0.000000, 0.000000, 0.000000;;,
      89;3;    0.000000, 0.000000, 0.000000;;,
      90;3;    0.000000, 0.000000, 0.000000;;,
      91;3;    0.000000, 0.000000, 0.000000;;,
      92;3;    0.000000, 0.000000, 0.000000;;,
      93;3;    0.000000, 0.000000, 0.000000;;,
      94;3;    0.000000, 0.000000, 0.000000;;,
      95;3;    0.000000, 0.000000, 0.000000;;,
      96;3;    0.000000, 0.000000, 0.000000;;,
      97;3;    0.000000, 0.000000, 0.000000;;,
      98;3;    0.000000, 0.000000, 0.000000;;,
      99;3;    0.000000, 0.000000, 0.000000;;,
      100;3;   0.000000, 0.000000, 0.000000;;,
      101;3;   0.000000, 0.000000, 0.000000;;,
      102;3;   0.000000, 0.000000, 0.000000;;,
      103;3;   0.000000, 0.000000, 0.000000;;,
      104;3;   0.000000, 0.000000, 0.000000;;,
      105;3;   0.000000, 0.000000, 0.000000;;,
      106;3;   0.000000, 0.000000, 0.000000;;,
      107;3;   0.000000, 0.000000, 0.000000;;,
      108;3;   0.000000, 0.000000, 0.000000;;,
      109;3;   0.000000, 0.000000, 0.000000;;,
      110;3;   0.000000, 0.000000, 0.000000;;,
      111;3;   0.000000, 0.000000, 0.000000;;,
      112;3;   0.000000, 0.000000, 0.000000;;,
      113;3;   0.000000, 0.000000, 0.000000;;,
      114;3;   0.000000, 0.000000, 0.000000;;,
      115;3;   0.000000, 0.000000, 0.000000;;,
      116;3;   0.000000, 0.000000, 0.000000;;,
      117;3;   0.000000, 0.000000, 0.000000;;,
      118;3;   0.000000, 0.000000, 0.000000;;,
      119;3;   0.000000, 0.000000, 0.000000;;,
      120;3;   0.000000, 0.000000, 0.000000;;,
      121;3;   0.000000, 0.000000, 0.000000;;,
      122;3;   0.000000, 0.000000, 0.000000;;,
      123;3;   0.000000, 0.000000, 0.000000;;,
      124;3;   0.000000, 0.000000, 0.000000;;,
      125;3;   0.000000, 0.000000, 0.000000;;,
      126;3;   0.000000, 0.000000, 0.000000;;,
      127;3;   0.000000, 0.000000, 0.000000;;,
      128;3;   0.000000, 0.000000, 0.000000;;,
      129;3;   0.000000, 0.000000, 0.000000;;,
      130;3;   0.000000, 0.000000, 0.000000;;,
      131;3;   0.000000, 0.000000, 0.000000;;,
      132;3;   0.000000, 0.000000, 0.000000;;,
      133;3;   0.000000, 0.000000, 0.000000;;,
      134;3;   0.000000, 0.000000, 0.000000;;,
      135;3;   0.000000, 0.000000, 0.000000;;,
      136;3;   0.000000, 0.000000, 0.000000;;,
      137;3;   0.000000, 0.000000, 0.000000;;,
      138;3;   0.000000, 0.000000, 0.000000;;,
      139;3;   0.000000, 0.000000, 0.000000;;,
      140;3;   0.000000, 0.000000, 0.000000;;,
      141;3;   0.000000, 0.000000, 0.000000;;,
      142;3;   0.000000, 0.000000, 0.000000;;,
      143;3;   0.000000, 0.000000, 0.000000;;,
      144;3;   0.000000, 0.000000, 0.000000;;,
      145;3;   0.000000, 0.000000, 0.000000;;,
      146;3;   0.000000, 0.000000, 0.000000;;,
      147;3;   0.000000, 0.000000, 0.000000;;,
      148;3;   0.000000, 0.000000, 0.000000;;,
      149;3;   0.000000, 0.000000, 0.000000;;,
      150;3;   0.000000, 0.000000, 0.000000;;,
      151;3;   0.000000, 0.000000, 0.000000;;,
      152;3;   0.000000, 0.000000, 0.000000;;,
      153;3;   0.000000, 0.000000, 0.000000;;,
      154;3;   0.000000, 0.000000, 0.000000;;,
      155;3;   0.000000, 0.000000, 0.000000;;,
      156;3;   0.000000, 0.000000, 0.000000;;,
      157;3;   0.000000, 0.000000, 0.000000;;,
      158;3;   0.000000, 0.000000, 0.000000;;,
      159;3;   0.000000, 0.000000, 0.000000;;,
      160;3;   0.000000, 0.000000, 0.000000;;,
      161;3;   0.000000, 0.000000, 0.000000;;,
      162;3;   0.000000, 0.000000, 0.000000;;,
      163;3;   0.000000, 0.000000, 0.000000;;,
      164;3;   0.000000, 0.000000, 0.000000;;,
      165;3;   0.000000, 0.000000, 0.000000;;,
      166;3;   0.000000, 0.000000, 0.000000;;,
      167;3;   0.000000, 0.000000, 0.000000;;,
      168;3;   0.000000, 0.000000, 0.000000;;,
      169;3;   0.000000, 0.000000, 0.000000;;,
      170;3;   0.000000, 0.000000, 0.000000;;,
      171;3;   0.000000, 0.000000, 0.000000;;,
      172;3;   0.000000, 0.000000, 0.000000;;,
      173;3;   0.000000, 0.000000, 0.000000;;,
      174;3;   0.000000, 0.000000, 0.000000;;,
      175;3;   0.000000, 0.000000, 0.000000;;,
      176;3;   0.000000, 0.000000, 0.000000;;,
      177;3;   0.000000, 0.000000, 0.000000;;,
      178;3;   0.000000, 0.000000, 0.000000;;,
      179;3;   0.000000, 0.000000, 0.000000;;,
      180;3;   0.000000, 0.000000, 0.000000;;,
      181;3;   0.000000, 0.000000, 0.000000;;,
      182;3;   0.000000, 0.000000, 0.000000;;,
      183;3;   0.000000, 0.000000, 0.000000;;,
      184;3;   0.000000, 0.000000, 0.000000;;,
      185;3;   0.000000, 0.000000, 0.000000;;,
      186;3;   0.000000, 0.000000, 0.000000;;,
      187;3;   0.000000, 0.000000, 0.000000;;,
      188;3;   0.000000, 0.000000, 0.000000;;,
      189;3;   0.000000, 0.000000, 0.000000;;,
      190;3;   0.000000, 0.000000, 0.000000;;,
      191;3;   0.000000, 0.000000, 0.000000;;,
      192;3;   0.000000, 0.000000, 0.000000;;,
      193;3;   0.000000, 0.000000, 0.000000;;,
      194;3;   0.000000, 0.000000, 0.000000;;,
      195;3;   0.000000, 0.000000, 0.000000;;,
      196;3;   0.000000, 0.000000, 0.000000;;,
      197;3;   0.000000, 0.000000, 0.000000;;,
      198;3;   0.000000, 0.000000, 0.000000;;,
      199;3;   0.000000, 0.000000, 0.000000;;,
      200;3;   0.000000, 0.000000, 0.000000;;,
      201;3;   0.000000, 0.000000, 0.000000;;,
      202;3;   0.000000, 0.000000, 0.000000;;,
      203;3;   0.000000, 0.000000, 0.000000;;,
      204;3;   0.000000, 0.000000, 0.000000;;,
      205;3;   0.000000, 0.000000, 0.000000;;,
      206;3;   0.000000, 0.000000, 0.000000;;,
      207;3;   0.000000, 0.000000, 0.000000;;,
      208;3;   0.000000, 0.000000, 0.000000;;,
      209;3;   0.000000, 0.000000, 0.000000;;,
      210;3;   0.000000, 0.000000, 0.000000;;,
      211;3;   0.000000, 0.000000, 0.000000;;,
      212;3;   0.000000, 0.000000, 0.000000;;,
      213;3;   0.000000, 0.000000, 0.000000;;,
      214;3;   0.000000, 0.000000, 0.000000;;,
      215;3;   0.000000, 0.000000, 0.000000;;,
      216;3;   0.000000, 0.000000, 0.000000;;,
      217;3;   0.000000, 0.000000, 0.000000;;,
      218;3;   0.000000, 0.000000, 0.000000;;,
      219;3;   0.000000, 0.000000, 0.000000;;,
      220;3;   0.000000, 0.000000, 0.000000;;,
      221;3;   0.000000, 0.000000, 0.000000;;,
      222;3;   0.000000, 0.000000, 0.000000;;,
      223;3;   0.000000, 0.000000, 0.000000;;,
      224;3;   0.000000, 0.000000, 0.000000;;,
      225;3;   0.000000, 0.000000, 0.000000;;,
      226;3;   0.000000, 0.000000, 0.000000;;,
      227;3;   0.000000, 0.000000, 0.000000;;,
      228;3;   0.000000, 0.000000, 0.000000;;,
      229;3;   0.000000, 0.000000, 0.000000;;,
      230;3;   0.000000, 0.000000, 0.000000;;,
      231;3;   0.000000, 0.000000, 0.000000;;,
      232;3;   0.000000, 0.000000, 0.000000;;,
      233;3;   0.000000, 0.000000, 0.000000;;,
      234;3;   0.000000, 0.000000, 0.000000;;,
      235;3;   0.000000, 0.000000, 0.000000;;,
      236;3;   0.000000, 0.000000, 0.000000;;,
      237;3;   0.000000, 0.000000, 0.000000;;,
      238;3;   0.000000, 0.000000, 0.000000;;,
      239;3;   0.000000, 0.000000, 0.000000;;,
      240;3;   0.000000, 0.000000, 0.000000;;,
      241;3;   0.000000, 0.000000, 0.000000;;,
      242;3;   0.000000, 0.000000, 0.000000;;,
      243;3;   0.000000, 0.000000, 0.000000;;,
      244;3;   0.000000, 0.000000, 0.000000;;,
      245;3;   0.000000, 0.000000, 0.000000;;,
      246;3;   0.000000, 0.000000, 0.000000;;,
      247;3;   0.000000, 0.000000, 0.000000;;,
      248;3;   0.000000, 0.000000, 0.000000;;,
      249;3;   0.000000, 0.000000, 0.000000;;;
    }
    AnimationKey { //Rotation
      0;
      250;
      0;4;    -1.000000, 0.000000, 0.000000, 0.000000;;,
      1;4;    -1.000000, 0.000000, 0.000000, 0.000000;;,
      2;4;    -1.000000, 0.000000, 0.000000, 0.000000;;,
      3;4;    -1.000000, 0.000000, 0.000000, 0.000000;;,
      4;4;    -1.000000, 0.000000, 0.000000, 0.000000;;,
      5;4;    -1.000000, 0.000000, 0.000000, 0.000000;;,
      6;4;    -1.000000, 0.000000, 0.000000, 0.000000;;,
      7;4;    -1.000000, 0.000000, 0.000000, 0.000000;;,
      8;4;    -1.000000, 0.000000, 0.000000, 0.000000;;,
      9;4;    -1.000000, 0.000000, 0.000000, 0.000000;;,
      10;4;   -1.000000, 0.000000, 0.000000, 0.000000;;,
      11;4;   -1.000000, 0.000000, 0.000000, 0.000000;;,
      12;4;   -1.000000, 0.000000, 0.000000, 0.000000;;,
      13;4;   -1.000000, 0.000000, 0.000000, 0.000000;;,
      14;4;   -1.000000, 0.000000, 0.000000, 0.000000;;,
      15;4;   -1.000000, 0.000000, 0.000000, 0.000000;;,
      16;4;   -1.000000, 0.000000, 0.000000, 0.000000;;,
      17;4;   -1.000000, 0.000000, 0.000000, 0.000000;;,
      18;4;   -1.000000, 0.000000, 0.000000, 0.000000;;,
      19;4;   -1.000000, 0.000000, 0.000000, 0.000000;;,
      20;4;   -1.000000, 0.000000, 0.000000, 0.000000;;,
      21;4;   -1.000000, 0.000000, 0.000000, 0.000000;;,
      22;4;   -1.000000, 0.000000, 0.000000, 0.000000;;,
      23;4;   -1.000000, 0.000000, 0.000000, 0.000000;;,
      24;4;   -1.000000, 0.000000, 0.000000, 0.000000;;,
      25;4;   -1.000000, 0.000000, 0.000000, 0.000000;;,
      26;4;   -1.000000, 0.000000, 0.000000, 0.000000;;,
      27;4;   -1.000000, 0.000000, 0.000000, 0.000000;;,
      28;4;   -1.000000, 0.000000, 0.000000, 0.000000;;,
      29;4;   -1.000000, 0.000000, 0.000000, 0.000000;;,
      30;4;   -1.000000, 0.000000, 0.000000, 0.000000;;,
      31;4;   -1.000000, 0.000000, 0.000000, 0.000000;;,
      32;4;   -1.000000, 0.000000, 0.000000, 0.000000;;,
      33;4;   -1.000000, 0.000000, 0.000000, 0.000000;;,
      34;4;   -1.000000, 0.000000, 0.000000, 0.000000;;,
      35;4;   -1.000000, 0.000000, 0.000000, 0.000000;;,
      36;4;   -1.000000, 0.000000, 0.000000, 0.000000;;,
      37;4;   -1.000000, 0.000000, 0.000000, 0.000000;;,
      38;4;   -1.000000, 0.000000, 0.000000, 0.000000;;,
      39;4;   -1.000000, 0.000000, 0.000000, 0.000000;;,
      40;4;   -1.000000, 0.000000, 0.000000, 0.000000;;,
      41;4;   -1.000000, 0.000000, 0.000000, 0.000000;;,
      42;4;   -1.000000, 0.000000, 0.000000, 0.000000;;,
      43;4;   -1.000000, 0.000000, 0.000000, 0.000000;;,
      44;4;   -1.000000, 0.000000, 0.000000, 0.000000;;,
      45;4;   -1.000000, 0.000000, 0.000000, 0.000000;;,
      46;4;   -1.000000, 0.000000, 0.000000, 0.000000;;,
      47;4;   -1.000000, 0.000000, 0.000000, 0.000000;;,
      48;4;   -1.000000, 0.000000, 0.000000, 0.000000;;,
      49;4;   -1.000000, 0.000000, 0.000000, 0.000000;;,
      50;4;   -1.000000, 0.000000, 0.000000, 0.000000;;,
      51;4;   -1.000000, 0.000000, 0.000000, 0.000000;;,
      52;4;   -1.000000, 0.000000, 0.000000, 0.000000;;,
      53;4;   -1.000000, 0.000000, 0.000000, 0.000000;;,
      54;4;   -1.000000, 0.000000, 0.000000, 0.000000;;,
      55;4;   -1.000000, 0.000000, 0.000000, 0.000000;;,
      56;4;   -1.000000, 0.000000, 0.000000, 0.000000;;,
      57;4;   -1.000000, 0.000000, 0.000000, 0.000000;;,
      58;4;   -1.000000, 0.000000, 0.000000, 0.000000;;,
      59;4;   -1.000000, 0.000000, 0.000000, 0.000000;;,
      60;4;   -1.000000, 0.000000, 0.000000, 0.000000;;,
      61;4;   -1.000000, 0.000000, 0.000000, 0.000000;;,
      62;4;   -1.000000, 0.000000, 0.000000, 0.000000;;,
      63;4;   -1.000000, 0.000000, 0.000000, 0.000000;;,
      64;4;   -1.000000, 0.000000, 0.000000, 0.000000;;,
      65;4;   -1.000000, 0.000000, 0.000000, 0.000000;;,
      66;4;   -1.000000, 0.000000, 0.000000, 0.000000;;,
      67;4;   -1.000000, 0.000000, 0.000000, 0.000000;;,
      68;4;   -1.000000, 0.000000, 0.000000, 0.000000;;,
      69;4;   -1.000000, 0.000000, 0.000000, 0.000000;;,
      70;4;   -1.000000, 0.000000, 0.000000, 0.000000;;,
      71;4;   -1.000000, 0.000000, 0.000000, 0.000000;;,
      72;4;   -1.000000, 0.000000, 0.000000, 0.000000;;,
      73;4;   -1.000000, 0.000000, 0.000000, 0.000000;;,
      74;4;   -1.000000, 0.000000, 0.000000, 0.000000;;,
      75;4;   -1.000000, 0.000000, 0.000000, 0.000000;;,
      76;4;   -1.000000, 0.000000, 0.000000, 0.000000;;,
      77;4;   -1.000000, 0.000000, 0.000000, 0.000000;;,
      78;4;   -1.000000, 0.000000, 0.000000, 0.000000;;,
      79;4;   -1.000000, 0.000000, 0.000000, 0.000000;;,
      80;4;   -1.000000, 0.000000, 0.000000, 0.000000;;,
      81;4;   -1.000000, 0.000000, 0.000000, 0.000000;;,
      82;4;   -1.000000, 0.000000, 0.000000, 0.000000;;,
      83;4;   -1.000000, 0.000000, 0.000000, 0.000000;;,
      84;4;   -1.000000, 0.000000, 0.000000, 0.000000;;,
      85;4;   -1.000000, 0.000000, 0.000000, 0.000000;;,
      86;4;   -1.000000, 0.000000, 0.000000, 0.000000;;,
      87;4;   -1.000000, 0.000000, 0.000000, 0.000000;;,
      88;4;   -1.000000, 0.000000, 0.000000, 0.000000;;,
      89;4;   -1.000000, 0.000000, 0.000000, 0.000000;;,
      90;4;   -1.000000, 0.000000, 0.000000, 0.000000;;,
      91;4;   -1.000000, 0.000000, 0.000000, 0.000000;;,
      92;4;   -1.000000, 0.000000, 0.000000, 0.000000;;,
      93;4;   -1.000000, 0.000000, 0.000000, 0.000000;;,
      94;4;   -1.000000, 0.000000, 0.000000, 0.000000;;,
      95;4;   -1.000000, 0.000000, 0.000000, 0.000000;;,
      96;4;   -1.000000, 0.000000, 0.000000, 0.000000;;,
      97;4;   -1.000000, 0.000000, 0.000000, 0.000000;;,
      98;4;   -1.000000, 0.000000, 0.000000, 0.000000;;,
      99;4;   -1.000000, 0.000000, 0.000000, 0.000000;;,
      100;4;  -1.000000, 0.000000, 0.000000, 0.000000;;,
      101;4;  -1.000000, 0.000000, 0.000000, 0.000000;;,
      102;4;  -1.000000, 0.000000, 0.000000, 0.000000;;,
      103;4;  -1.000000, 0.000000, 0.000000, 0.000000;;,
      104;4;  -1.000000, 0.000000, 0.000000, 0.000000;;,
      105;4;  -1.000000, 0.000000, 0.000000, 0.000000;;,
      106;4;  -1.000000, 0.000000, 0.000000, 0.000000;;,
      107;4;  -1.000000, 0.000000, 0.000000, 0.000000;;,
      108;4;  -1.000000, 0.000000, 0.000000, 0.000000;;,
      109;4;  -1.000000, 0.000000, 0.000000, 0.000000;;,
      110;4;  -1.000000, 0.000000, 0.000000, 0.000000;;,
      111;4;  -1.000000, 0.000000, 0.000000, 0.000000;;,
      112;4;  -1.000000, 0.000000, 0.000000, 0.000000;;,
      113;4;  -1.000000, 0.000000, 0.000000, 0.000000;;,
      114;4;  -1.000000, 0.000000, 0.000000, 0.000000;;,
      115;4;  -1.000000, 0.000000, 0.000000, 0.000000;;,
      116;4;  -1.000000, 0.000000, 0.000000, 0.000000;;,
      117;4;  -1.000000, 0.000000, 0.000000, 0.000000;;,
      118;4;  -1.000000, 0.000000, 0.000000, 0.000000;;,
      119;4;  -1.000000, 0.000000, 0.000000, 0.000000;;,
      120;4;  -1.000000, 0.000000, 0.000000, 0.000000;;,
      121;4;  -1.000000, 0.000000, 0.000000, 0.000000;;,
      122;4;  -1.000000, 0.000000, 0.000000, 0.000000;;,
      123;4;  -1.000000, 0.000000, 0.000000, 0.000000;;,
      124;4;  -1.000000, 0.000000, 0.000000, 0.000000;;,
      125;4;  -1.000000, 0.000000, 0.000000, 0.000000;;,
      126;4;  -1.000000, 0.000000, 0.000000, 0.000000;;,
      127;4;  -1.000000, 0.000000, 0.000000, 0.000000;;,
      128;4;  -1.000000, 0.000000, 0.000000, 0.000000;;,
      129;4;  -1.000000, 0.000000, 0.000000, 0.000000;;,
      130;4;  -1.000000, 0.000000, 0.000000, 0.000000;;,
      131;4;  -1.000000, 0.000000, 0.000000, 0.000000;;,
      132;4;  -1.000000, 0.000000, 0.000000, 0.000000;;,
      133;4;  -1.000000, 0.000000, 0.000000, 0.000000;;,
      134;4;  -1.000000, 0.000000, 0.000000, 0.000000;;,
      135;4;  -1.000000, 0.000000, 0.000000, 0.000000;;,
      136;4;  -1.000000, 0.000000, 0.000000, 0.000000;;,
      137;4;  -1.000000, 0.000000, 0.000000, 0.000000;;,
      138;4;  -1.000000, 0.000000, 0.000000, 0.000000;;,
      139;4;  -1.000000, 0.000000, 0.000000, 0.000000;;,
      140;4;  -1.000000, 0.000000, 0.000000, 0.000000;;,
      141;4;  -1.000000, 0.000000, 0.000000, 0.000000;;,
      142;4;  -1.000000, 0.000000, 0.000000, 0.000000;;,
      143;4;  -1.000000, 0.000000, 0.000000, 0.000000;;,
      144;4;  -1.000000, 0.000000, 0.000000, 0.000000;;,
      145;4;  -1.000000, 0.000000, 0.000000, 0.000000;;,
      146;4;  -1.000000, 0.000000, 0.000000, 0.000000;;,
      147;4;  -1.000000, 0.000000, 0.000000, 0.000000;;,
      148;4;  -1.000000, 0.000000, 0.000000, 0.000000;;,
      149;4;  -1.000000, 0.000000, 0.000000, 0.000000;;,
      150;4;  -1.000000, 0.000000, 0.000000, 0.000000;;,
      151;4;  -1.000000, 0.000000, 0.000000, 0.000000;;,
      152;4;  -1.000000, 0.000000, 0.000000, 0.000000;;,
      153;4;  -1.000000, 0.000000, 0.000000, 0.000000;;,
      154;4;  -1.000000, 0.000000, 0.000000, 0.000000;;,
      155;4;  -1.000000, 0.000000, 0.000000, 0.000000;;,
      156;4;  -1.000000, 0.000000, 0.000000, 0.000000;;,
      157;4;  -1.000000, 0.000000, 0.000000, 0.000000;;,
      158;4;  -1.000000, 0.000000, 0.000000, 0.000000;;,
      159;4;  -1.000000, 0.000000, 0.000000, 0.000000;;,
      160;4;  -1.000000, 0.000000, 0.000000, 0.000000;;,
      161;4;  -1.000000, 0.000000, 0.000000, 0.000000;;,
      162;4;  -1.000000, 0.000000, 0.000000, 0.000000;;,
      163;4;  -1.000000, 0.000000, 0.000000, 0.000000;;,
      164;4;  -1.000000, 0.000000, 0.000000, 0.000000;;,
      165;4;  -1.000000, 0.000000, 0.000000, 0.000000;;,
      166;4;  -1.000000, 0.000000, 0.000000, 0.000000;;,
      167;4;  -1.000000, 0.000000, 0.000000, 0.000000;;,
      168;4;  -1.000000, 0.000000, 0.000000, 0.000000;;,
      169;4;  -1.000000, 0.000000, 0.000000, 0.000000;;,
      170;4;  -1.000000, 0.000000, 0.000000, 0.000000;;,
      171;4;  -1.000000, 0.000000, 0.000000, 0.000000;;,
      172;4;  -1.000000, 0.000000, 0.000000, 0.000000;;,
      173;4;  -1.000000, 0.000000, 0.000000, 0.000000;;,
      174;4;  -1.000000, 0.000000, 0.000000, 0.000000;;,
      175;4;  -1.000000, 0.000000, 0.000000, 0.000000;;,
      176;4;  -1.000000, 0.000000, 0.000000, 0.000000;;,
      177;4;  -1.000000, 0.000000, 0.000000, 0.000000;;,
      178;4;  -1.000000, 0.000000, 0.000000, 0.000000;;,
      179;4;  -1.000000, 0.000000, 0.000000, 0.000000;;,
      180;4;  -1.000000, 0.000000, 0.000000, 0.000000;;,
      181;4;  -1.000000, 0.000000, 0.000000, 0.000000;;,
      182;4;  -1.000000, 0.000000, 0.000000, 0.000000;;,
      183;4;  -1.000000, 0.000000, 0.000000, 0.000000;;,
      184;4;  -1.000000, 0.000000, 0.000000, 0.000000;;,
      185;4;  -1.000000, 0.000000, 0.000000, 0.000000;;,
      186;4;  -1.000000, 0.000000, 0.000000, 0.000000;;,
      187;4;  -1.000000, 0.000000, 0.000000, 0.000000;;,
      188;4;  -1.000000, 0.000000, 0.000000, 0.000000;;,
      189;4;  -1.000000, 0.000000, 0.000000, 0.000000;;,
      190;4;  -1.000000, 0.000000, 0.000000, 0.000000;;,
      191;4;  -1.000000, 0.000000, 0.000000, 0.000000;;,
      192;4;  -1.000000, 0.000000, 0.000000, 0.000000;;,
      193;4;  -1.000000, 0.000000, 0.000000, 0.000000;;,
      194;4;  -1.000000, 0.000000, 0.000000, 0.000000;;,
      195;4;  -1.000000, 0.000000, 0.000000, 0.000000;;,
      196;4;  -1.000000, 0.000000, 0.000000, 0.000000;;,
      197;4;  -1.000000, 0.000000, 0.000000, 0.000000;;,
      198;4;  -1.000000, 0.000000, 0.000000, 0.000000;;,
      199;4;  -1.000000, 0.000000, 0.000000, 0.000000;;,
      200;4;  -1.000000, 0.000000, 0.000000, 0.000000;;,
      201;4;  -1.000000, 0.000000, 0.000000, 0.000000;;,
      202;4;  -1.000000, 0.000000, 0.000000, 0.000000;;,
      203;4;  -1.000000, 0.000000, 0.000000, 0.000000;;,
      204;4;  -1.000000, 0.000000, 0.000000, 0.000000;;,
      205;4;  -1.000000, 0.000000, 0.000000, 0.000000;;,
      206;4;  -1.000000, 0.000000, 0.000000, 0.000000;;,
      207;4;  -1.000000, 0.000000, 0.000000, 0.000000;;,
      208;4;  -1.000000, 0.000000, 0.000000, 0.000000;;,
      209;4;  -1.000000, 0.000000, 0.000000, 0.000000;;,
      210;4;  -1.000000, 0.000000, 0.000000, 0.000000;;,
      211;4;  -1.000000, 0.000000, 0.000000, 0.000000;;,
      212;4;  -1.000000, 0.000000, 0.000000, 0.000000;;,
      213;4;  -1.000000, 0.000000, 0.000000, 0.000000;;,
      214;4;  -1.000000, 0.000000, 0.000000, 0.000000;;,
      215;4;  -1.000000, 0.000000, 0.000000, 0.000000;;,
      216;4;  -1.000000, 0.000000, 0.000000, 0.000000;;,
      217;4;  -1.000000, 0.000000, 0.000000, 0.000000;;,
      218;4;  -1.000000, 0.000000, 0.000000, 0.000000;;,
      219;4;  -1.000000, 0.000000, 0.000000, 0.000000;;,
      220;4;  -1.000000, 0.000000, 0.000000, 0.000000;;,
      221;4;  -1.000000, 0.000000, 0.000000, 0.000000;;,
      222;4;  -1.000000, 0.000000, 0.000000, 0.000000;;,
      223;4;  -1.000000, 0.000000, 0.000000, 0.000000;;,
      224;4;  -1.000000, 0.000000, 0.000000, 0.000000;;,
      225;4;  -1.000000, 0.000000, 0.000000, 0.000000;;,
      226;4;  -1.000000, 0.000000, 0.000000, 0.000000;;,
      227;4;  -1.000000, 0.000000, 0.000000, 0.000000;;,
      228;4;  -1.000000, 0.000000, 0.000000, 0.000000;;,
      229;4;  -1.000000, 0.000000, 0.000000, 0.000000;;,
      230;4;  -1.000000, 0.000000, 0.000000, 0.000000;;,
      231;4;  -1.000000, 0.000000, 0.000000, 0.000000;;,
      232;4;  -1.000000, 0.000000, 0.000000, 0.000000;;,
      233;4;  -1.000000, 0.000000, 0.000000, 0.000000;;,
      234;4;  -1.000000, 0.000000, 0.000000, 0.000000;;,
      235;4;  -1.000000, 0.000000, 0.000000, 0.000000;;,
      236;4;  -1.000000, 0.000000, 0.000000, 0.000000;;,
      237;4;  -1.000000, 0.000000, 0.000000, 0.000000;;,
      238;4;  -1.000000, 0.000000, 0.000000, 0.000000;;,
      239;4;  -1.000000, 0.000000, 0.000000, 0.000000;;,
      240;4;  -1.000000, 0.000000, 0.000000, 0.000000;;,
      241;4;  -1.000000, 0.000000, 0.000000, 0.000000;;,
      242;4;  -1.000000, 0.000000, 0.000000, 0.000000;;,
      243;4;  -1.000000, 0.000000, 0.000000, 0.000000;;,
      244;4;  -1.000000, 0.000000, 0.000000, 0.000000;;,
      245;4;  -1.000000, 0.000000, 0.000000, 0.000000;;,
      246;4;  -1.000000, 0.000000, 0.000000, 0.000000;;,
      247;4;  -1.000000, 0.000000, 0.000000, 0.000000;;,
      248;4;  -1.000000, 0.000000, 0.000000, 0.000000;;,
      249;4;  -1.000000, 0.000000, 0.000000, 0.000000;;;
    }
    AnimationKey { //Scale
      1;
      250;
      0;3;     1.000000, 1.000000, 1.000000;;,
      1;3;     1.000000, 1.000000, 1.000000;;,
      2;3;     1.000000, 1.000000, 1.000000;;,
      3;3;     1.000000, 1.000000, 1.000000;;,
      4;3;     1.000000, 1.000000, 1.000000;;,
      5;3;     1.000000, 1.000000, 1.000000;;,
      6;3;     1.000000, 1.000000, 1.000000;;,
      7;3;     1.000000, 1.000000, 1.000000;;,
      8;3;     1.000000, 1.000000, 1.000000;;,
      9;3;     1.000000, 1.000000, 1.000000;;,
      10;3;    1.000000, 1.000000, 1.000000;;,
      11;3;    1.000000, 1.000000, 1.000000;;,
      12;3;    1.000000, 1.000000, 1.000000;;,
      13;3;    1.000000, 1.000000, 1.000000;;,
      14;3;    1.000000, 1.000000, 1.000000;;,
      15;3;    1.000000, 1.000000, 1.000000;;,
      16;3;    1.000000, 1.000000, 1.000000;;,
      17;3;    1.000000, 1.000000, 1.000000;;,
      18;3;    1.000000, 1.000000, 1.000000;;,
      19;3;    1.000000, 1.000000, 1.000000;;,
      20;3;    1.000000, 1.000000, 1.000000;;,
      21;3;    1.000000, 1.000000, 1.000000;;,
      22;3;    1.000000, 1.000000, 1.000000;;,
      23;3;    1.000000, 1.000000, 1.000000;;,
      24;3;    1.000000, 1.000000, 1.000000;;,
      25;3;    1.000000, 1.000000, 1.000000;;,
      26;3;    1.000000, 1.000000, 1.000000;;,
      27;3;    1.000000, 1.000000, 1.000000;;,
      28;3;    1.000000, 1.000000, 1.000000;;,
      29;3;    1.000000, 1.000000, 1.000000;;,
      30;3;    1.000000, 1.000000, 1.000000;;,
      31;3;    1.000000, 1.000000, 1.000000;;,
      32;3;    1.000000, 1.000000, 1.000000;;,
      33;3;    1.000000, 1.000000, 1.000000;;,
      34;3;    1.000000, 1.000000, 1.000000;;,
      35;3;    1.000000, 1.000000, 1.000000;;,
      36;3;    1.000000, 1.000000, 1.000000;;,
      37;3;    1.000000, 1.000000, 1.000000;;,
      38;3;    1.000000, 1.000000, 1.000000;;,
      39;3;    1.000000, 1.000000, 1.000000;;,
      40;3;    1.000000, 1.000000, 1.000000;;,
      41;3;    1.000000, 1.000000, 1.000000;;,
      42;3;    1.000000, 1.000000, 1.000000;;,
      43;3;    1.000000, 1.000000, 1.000000;;,
      44;3;    1.000000, 1.000000, 1.000000;;,
      45;3;    1.000000, 1.000000, 1.000000;;,
      46;3;    1.000000, 1.000000, 1.000000;;,
      47;3;    1.000000, 1.000000, 1.000000;;,
      48;3;    1.000000, 1.000000, 1.000000;;,
      49;3;    1.000000, 1.000000, 1.000000;;,
      50;3;    1.000000, 1.000000, 1.000000;;,
      51;3;    1.000000, 1.000000, 1.000000;;,
      52;3;    1.000000, 1.000000, 1.000000;;,
      53;3;    1.000000, 1.000000, 1.000000;;,
      54;3;    1.000000, 1.000000, 1.000000;;,
      55;3;    1.000000, 1.000000, 1.000000;;,
      56;3;    1.000000, 1.000000, 1.000000;;,
      57;3;    1.000000, 1.000000, 1.000000;;,
      58;3;    1.000000, 1.000000, 1.000000;;,
      59;3;    1.000000, 1.000000, 1.000000;;,
      60;3;    1.000000, 1.000000, 1.000000;;,
      61;3;    1.000000, 1.000000, 1.000000;;,
      62;3;    1.000000, 1.000000, 1.000000;;,
      63;3;    1.000000, 1.000000, 1.000000;;,
      64;3;    1.000000, 1.000000, 1.000000;;,
      65;3;    1.000000, 1.000000, 1.000000;;,
      66;3;    1.000000, 1.000000, 1.000000;;,
      67;3;    1.000000, 1.000000, 1.000000;;,
      68;3;    1.000000, 1.000000, 1.000000;;,
      69;3;    1.000000, 1.000000, 1.000000;;,
      70;3;    1.000000, 1.000000, 1.000000;;,
      71;3;    1.000000, 1.000000, 1.000000;;,
      72;3;    1.000000, 1.000000, 1.000000;;,
      73;3;    1.000000, 1.000000, 1.000000;;,
      74;3;    1.000000, 1.000000, 1.000000;;,
      75;3;    1.000000, 1.000000, 1.000000;;,
      76;3;    1.000000, 1.000000, 1.000000;;,
      77;3;    1.000000, 1.000000, 1.000000;;,
      78;3;    1.000000, 1.000000, 1.000000;;,
      79;3;    1.000000, 1.000000, 1.000000;;,
      80;3;    1.000000, 1.000000, 1.000000;;,
      81;3;    1.000000, 1.000000, 1.000000;;,
      82;3;    1.000000, 1.000000, 1.000000;;,
      83;3;    1.000000, 1.000000, 1.000000;;,
      84;3;    1.000000, 1.000000, 1.000000;;,
      85;3;    1.000000, 1.000000, 1.000000;;,
      86;3;    1.000000, 1.000000, 1.000000;;,
      87;3;    1.000000, 1.000000, 1.000000;;,
      88;3;    1.000000, 1.000000, 1.000000;;,
      89;3;    1.000000, 1.000000, 1.000000;;,
      90;3;    1.000000, 1.000000, 1.000000;;,
      91;3;    1.000000, 1.000000, 1.000000;;,
      92;3;    1.000000, 1.000000, 1.000000;;,
      93;3;    1.000000, 1.000000, 1.000000;;,
      94;3;    1.000000, 1.000000, 1.000000;;,
      95;3;    1.000000, 1.000000, 1.000000;;,
      96;3;    1.000000, 1.000000, 1.000000;;,
      97;3;    1.000000, 1.000000, 1.000000;;,
      98;3;    1.000000, 1.000000, 1.000000;;,
      99;3;    1.000000, 1.000000, 1.000000;;,
      100;3;   1.000000, 1.000000, 1.000000;;,
      101;3;   1.000000, 1.000000, 1.000000;;,
      102;3;   1.000000, 1.000000, 1.000000;;,
      103;3;   1.000000, 1.000000, 1.000000;;,
      104;3;   1.000000, 1.000000, 1.000000;;,
      105;3;   1.000000, 1.000000, 1.000000;;,
      106;3;   1.000000, 1.000000, 1.000000;;,
      107;3;   1.000000, 1.000000, 1.000000;;,
      108;3;   1.000000, 1.000000, 1.000000;;,
      109;3;   1.000000, 1.000000, 1.000000;;,
      110;3;   1.000000, 1.000000, 1.000000;;,
      111;3;   1.000000, 1.000000, 1.000000;;,
      112;3;   1.000000, 1.000000, 1.000000;;,
      113;3;   1.000000, 1.000000, 1.000000;;,
      114;3;   1.000000, 1.000000, 1.000000;;,
      115;3;   1.000000, 1.000000, 1.000000;;,
      116;3;   1.000000, 1.000000, 1.000000;;,
      117;3;   1.000000, 1.000000, 1.000000;;,
      118;3;   1.000000, 1.000000, 1.000000;;,
      119;3;   1.000000, 1.000000, 1.000000;;,
      120;3;   1.000000, 1.000000, 1.000000;;,
      121;3;   1.000000, 1.000000, 1.000000;;,
      122;3;   1.000000, 1.000000, 1.000000;;,
      123;3;   1.000000, 1.000000, 1.000000;;,
      124;3;   1.000000, 1.000000, 1.000000;;,
      125;3;   1.000000, 1.000000, 1.000000;;,
      126;3;   1.000000, 1.000000, 1.000000;;,
      127;3;   1.000000, 1.000000, 1.000000;;,
      128;3;   1.000000, 1.000000, 1.000000;;,
      129;3;   1.000000, 1.000000, 1.000000;;,
      130;3;   1.000000, 1.000000, 1.000000;;,
      131;3;   1.000000, 1.000000, 1.000000;;,
      132;3;   1.000000, 1.000000, 1.000000;;,
      133;3;   1.000000, 1.000000, 1.000000;;,
      134;3;   1.000000, 1.000000, 1.000000;;,
      135;3;   1.000000, 1.000000, 1.000000;;,
      136;3;   1.000000, 1.000000, 1.000000;;,
      137;3;   1.000000, 1.000000, 1.000000;;,
      138;3;   1.000000, 1.000000, 1.000000;;,
      139;3;   1.000000, 1.000000, 1.000000;;,
      140;3;   1.000000, 1.000000, 1.000000;;,
      141;3;   1.000000, 1.000000, 1.000000;;,
      142;3;   1.000000, 1.000000, 1.000000;;,
      143;3;   1.000000, 1.000000, 1.000000;;,
      144;3;   1.000000, 1.000000, 1.000000;;,
      145;3;   1.000000, 1.000000, 1.000000;;,
      146;3;   1.000000, 1.000000, 1.000000;;,
      147;3;   1.000000, 1.000000, 1.000000;;,
      148;3;   1.000000, 1.000000, 1.000000;;,
      149;3;   1.000000, 1.000000, 1.000000;;,
      150;3;   1.000000, 1.000000, 1.000000;;,
      151;3;   1.000000, 1.000000, 1.000000;;,
      152;3;   1.000000, 1.000000, 1.000000;;,
      153;3;   1.000000, 1.000000, 1.000000;;,
      154;3;   1.000000, 1.000000, 1.000000;;,
      155;3;   1.000000, 1.000000, 1.000000;;,
      156;3;   1.000000, 1.000000, 1.000000;;,
      157;3;   1.000000, 1.000000, 1.000000;;,
      158;3;   1.000000, 1.000000, 1.000000;;,
      159;3;   1.000000, 1.000000, 1.000000;;,
      160;3;   1.000000, 1.000000, 1.000000;;,
      161;3;   1.000000, 1.000000, 1.000000;;,
      162;3;   1.000000, 1.000000, 1.000000;;,
      163;3;   1.000000, 1.000000, 1.000000;;,
      164;3;   1.000000, 1.000000, 1.000000;;,
      165;3;   1.000000, 1.000000, 1.000000;;,
      166;3;   1.000000, 1.000000, 1.000000;;,
      167;3;   1.000000, 1.000000, 1.000000;;,
      168;3;   1.000000, 1.000000, 1.000000;;,
      169;3;   1.000000, 1.000000, 1.000000;;,
      170;3;   1.000000, 1.000000, 1.000000;;,
      171;3;   1.000000, 1.000000, 1.000000;;,
      172;3;   1.000000, 1.000000, 1.000000;;,
      173;3;   1.000000, 1.000000, 1.000000;;,
      174;3;   1.000000, 1.000000, 1.000000;;,
      175;3;   1.000000, 1.000000, 1.000000;;,
      176;3;   1.000000, 1.000000, 1.000000;;,
      177;3;   1.000000, 1.000000, 1.000000;;,
      178;3;   1.000000, 1.000000, 1.000000;;,
      179;3;   1.000000, 1.000000, 1.000000;;,
      180;3;   1.000000, 1.000000, 1.000000;;,
      181;3;   1.000000, 1.000000, 1.000000;;,
      182;3;   1.000000, 1.000000, 1.000000;;,
      183;3;   1.000000, 1.000000, 1.000000;;,
      184;3;   1.000000, 1.000000, 1.000000;;,
      185;3;   1.000000, 1.000000, 1.000000;;,
      186;3;   1.000000, 1.000000, 1.000000;;,
      187;3;   1.000000, 1.000000, 1.000000;;,
      188;3;   1.000000, 1.000000, 1.000000;;,
      189;3;   1.000000, 1.000000, 1.000000;;,
      190;3;   1.000000, 1.000000, 1.000000;;,
      191;3;   1.000000, 1.000000, 1.000000;;,
      192;3;   1.000000, 1.000000, 1.000000;;,
      193;3;   1.000000, 1.000000, 1.000000;;,
      194;3;   1.000000, 1.000000, 1.000000;;,
      195;3;   1.000000, 1.000000, 1.000000;;,
      196;3;   1.000000, 1.000000, 1.000000;;,
      197;3;   1.000000, 1.000000, 1.000000;;,
      198;3;   1.000000, 1.000000, 1.000000;;,
      199;3;   1.000000, 1.000000, 1.000000;;,
      200;3;   1.000000, 1.000000, 1.000000;;,
      201;3;   1.000000, 1.000000, 1.000000;;,
      202;3;   1.000000, 1.000000, 1.000000;;,
      203;3;   1.000000, 1.000000, 1.000000;;,
      204;3;   1.000000, 1.000000, 1.000000;;,
      205;3;   1.000000, 1.000000, 1.000000;;,
      206;3;   1.000000, 1.000000, 1.000000;;,
      207;3;   1.000000, 1.000000, 1.000000;;,
      208;3;   1.000000, 1.000000, 1.000000;;,
      209;3;   1.000000, 1.000000, 1.000000;;,
      210;3;   1.000000, 1.000000, 1.000000;;,
      211;3;   1.000000, 1.000000, 1.000000;;,
      212;3;   1.000000, 1.000000, 1.000000;;,
      213;3;   1.000000, 1.000000, 1.000000;;,
      214;3;   1.000000, 1.000000, 1.000000;;,
      215;3;   1.000000, 1.000000, 1.000000;;,
      216;3;   1.000000, 1.000000, 1.000000;;,
      217;3;   1.000000, 1.000000, 1.000000;;,
      218;3;   1.000000, 1.000000, 1.000000;;,
      219;3;   1.000000, 1.000000, 1.000000;;,
      220;3;   1.000000, 1.000000, 1.000000;;,
      221;3;   1.000000, 1.000000, 1.000000;;,
      222;3;   1.000000, 1.000000, 1.000000;;,
      223;3;   1.000000, 1.000000, 1.000000;;,
      224;3;   1.000000, 1.000000, 1.000000;;,
      225;3;   1.000000, 1.000000, 1.000000;;,
      226;3;   1.000000, 1.000000, 1.000000;;,
      227;3;   1.000000, 1.000000, 1.000000;;,
      228;3;   1.000000, 1.000000, 1.000000;;,
      229;3;   1.000000, 1.000000, 1.000000;;,
      230;3;   1.000000, 1.000000, 1.000000;;,
      231;3;   1.000000, 1.000000, 1.000000;;,
      232;3;   1.000000, 1.000000, 1.000000;;,
      233;3;   1.000000, 1.000000, 1.000000;;,
      234;3;   1.000000, 1.000000, 1.000000;;,
      235;3;   1.000000, 1.000000, 1.000000;;,
      236;3;   1.000000, 1.000000, 1.000000;;,
      237;3;   1.000000, 1.000000, 1.000000;;,
      238;3;   1.000000, 1.000000, 1.000000;;,
      239;3;   1.000000, 1.000000, 1.000000;;,
      240;3;   1.000000, 1.000000, 1.000000;;,
      241;3;   1.000000, 1.000000, 1.000000;;,
      242;3;   1.000000, 1.000000, 1.000000;;,
      243;3;   1.000000, 1.000000, 1.000000;;,
      244;3;   1.000000, 1.000000, 1.000000;;,
      245;3;   1.000000, 1.000000, 1.000000;;,
      246;3;   1.000000, 1.000000, 1.000000;;,
      247;3;   1.000000, 1.000000, 1.000000;;,
      248;3;   1.000000, 1.000000, 1.000000;;,
      249;3;   1.000000, 1.000000, 1.000000;;;
    }
  }
} //End of AnimationSet
