# 3ds Max Wavefront OBJ Exporter v0.97b - (c)2007 guruware
# File Created: 09.01.2013 15:48:29

newmtl wire_184155229
	Ns 32
	d 1
	Tr 0
	Tf 1 1 1
	illum 2
	Ka 0.7216 0.6078 0.8980
	Kd 0.7216 0.6078 0.8980
	Ks 0.3500 0.3500 0.3500
